<?xml version="1.0" encoding="UTF-8" standalone="no"?>
<!-- Created with Inkscape (http://www.inkscape.org/) -->

<svg
   xmlns:dc="http://purl.org/dc/elements/1.1/"
   xmlns:cc="http://creativecommons.org/ns#"
   xmlns:rdf="http://www.w3.org/1999/02/22-rdf-syntax-ns#"
   xmlns:svg="http://www.w3.org/2000/svg"
   xmlns="http://www.w3.org/2000/svg"
   xmlns:sodipodi="http://sodipodi.sourceforge.net/DTD/sodipodi-0.dtd"
   xmlns:inkscape="http://www.inkscape.org/namespaces/inkscape"
   width="990"
   height="765"
   id="svg2"
   version="1.1"
   inkscape:version="0.48.4 r9939"
   sodipodi:docname="PlanetWater.svg"
   inkscape:export-filename="C:\Development\Workspace\Ludum Dare\LD30\Assets\@\Artwork\Planets\PlanetStar.png"
   inkscape:export-xdpi="90"
   inkscape:export-ydpi="90">
  <defs
     id="defs4">
    <filter
       id="filter3228"
       inkscape:label="Glow"
       inkscape:menu="Shadows and Glows"
       inkscape:menu-tooltip="Glow of object's own color at the edges"
       color-interpolation-filters="sRGB">
      <feGaussianBlur
         id="feGaussianBlur3230"
         stdDeviation="5"
         result="result91" />
      <feComposite
         id="feComposite3232"
         in2="result91"
         in="SourceGraphic"
         operator="over" />
    </filter>
    <filter
       id="filter3246"
       inkscape:label="Glow"
       inkscape:menu="Shadows and Glows"
       inkscape:menu-tooltip="Glow of object's own color at the edges"
       color-interpolation-filters="sRGB">
      <feGaussianBlur
         id="feGaussianBlur3248"
         stdDeviation="5"
         result="result91" />
      <feComposite
         id="feComposite3250"
         in2="result91"
         in="SourceGraphic"
         operator="over" />
    </filter>
  </defs>
  <sodipodi:namedview
     id="base"
     pagecolor="#ffffff"
     bordercolor="#666666"
     borderopacity="1.0"
     inkscape:pageopacity="0.0"
     inkscape:pageshadow="2"
     inkscape:zoom="0.30175782"
     inkscape:cx="629.99561"
     inkscape:cy="404.26421"
     inkscape:document-units="px"
     inkscape:current-layer="layer11"
     showgrid="true"
     showborder="false"
     inkscape:showpageshadow="false"
     borderlayer="false"
     inkscape:window-width="1858"
     inkscape:window-height="1057"
     inkscape:window-x="-8"
     inkscape:window-y="-8"
     inkscape:window-maximized="1"
     inkscape:snap-global="true">
    <inkscape:grid
       type="xygrid"
       id="grid2985"
       empspacing="32"
       visible="true"
       enabled="true"
       snapvisiblegridlinesonly="true"
       dotted="false"
       empcolor="#0000ff"
       empopacity="0.18823529"
       color="#0000ff"
       opacity="0.25098039" />
  </sodipodi:namedview>
  <metadata
     id="metadata7">
    <rdf:RDF>
      <cc:Work
         rdf:about="">
        <dc:format>image/svg+xml</dc:format>
        <dc:type
           rdf:resource="http://purl.org/dc/dcmitype/StillImage" />
        <dc:title></dc:title>
      </cc:Work>
    </rdf:RDF>
  </metadata>
  <g
     inkscape:label="Background"
     inkscape:groupmode="layer"
     id="layer1"
     transform="translate(0,-287.36215)"
     style="opacity:0.44444442;display:inline"
     sodipodi:insensitive="true">
    <rect
       style="fill:#eeaaff;fill-opacity:1;fill-rule:nonzero;stroke:none"
       id="rect2983"
       width="1024"
       height="1024"
       x="0"
       y="28.362122" />
  </g>
  <g
     inkscape:groupmode="layer"
     id="layer2"
     inkscape:label="Planet"
     style="display:inline">
    <path
       sodipodi:type="arc"
       style="color:#000000;fill:#ececec;fill-opacity:1;fill-rule:evenodd;stroke:#cccccc;stroke-width:3.20765424;stroke-linecap:butt;stroke-linejoin:miter;stroke-miterlimit:4;stroke-opacity:1;stroke-dasharray:none;stroke-dashoffset:0;marker:none;visibility:visible;display:inline;overflow:visible;enable-background:accumulate"
       id="path2989"
       sodipodi:cx="114.52841"
       sodipodi:cy="625.867"
       sodipodi:rx="94.610428"
       sodipodi:ry="94.610428"
       d="m 209.13884,625.867 a 94.610428,94.610428 0 1 1 -189.220856,0 94.610428,94.610428 0 1 1 189.220856,0 z"
       transform="matrix(4.9924491,0,0,4.9836924,-59.804371,-2866.6457)" />
  </g>
  <g
     inkscape:groupmode="layer"
     id="layer10"
     inkscape:label="Moon"
     style="display:none">
    <g
       id="g3135">
      <path
         transform="matrix(1.0012887,-0.67420999,0.3767416,0.55950984,1090.032,-604.87332)"
         d="m -704,109 a 112,112 0 1 1 -224,0 112,112 0 1 1 224,0 z"
         sodipodi:ry="112"
         sodipodi:rx="112"
         sodipodi:cy="109"
         sodipodi:cx="-816"
         id="path3131"
         style="color:#000000;fill:#b3b3b3;fill-opacity:1;fill-rule:evenodd;stroke:#999999;stroke-width:17.73149681;stroke-linecap:butt;stroke-linejoin:miter;stroke-miterlimit:4;stroke-opacity:1;stroke-dasharray:none;stroke-dashoffset:0;marker:none;visibility:visible;display:inline;overflow:visible;enable-background:accumulate"
         sodipodi:type="arc" />
      <path
         sodipodi:type="arc"
         style="color:#000000;fill:#e6e6e6;fill-opacity:1;fill-rule:evenodd;stroke:#999999;stroke-width:23.73066711;stroke-linecap:butt;stroke-linejoin:miter;stroke-miterlimit:4;stroke-opacity:1;stroke-dasharray:none;stroke-dashoffset:0;marker:none;visibility:visible;display:inline;overflow:visible;enable-background:accumulate"
         id="path3133"
         sodipodi:cx="-816"
         sodipodi:cy="109"
         sodipodi:rx="112"
         sodipodi:ry="112"
         d="m -704,109 a 112,112 0 1 1 -224,0 112,112 0 1 1 224,0 z"
         transform="matrix(0.76596068,-0.49206098,0.28819785,0.40834897,919.25432,-423.19361)" />
    </g>
    <g
       id="g3139"
       transform="matrix(0.65008144,0,0,0.65008144,38.641074,246.73964)">
      <path
         sodipodi:type="arc"
         style="color:#000000;fill:#b3b3b3;fill-opacity:1;fill-rule:evenodd;stroke:#999999;stroke-width:27.27580833;stroke-linecap:butt;stroke-linejoin:miter;stroke-miterlimit:4;stroke-opacity:1;stroke-dasharray:none;stroke-dashoffset:0;marker:none;visibility:visible;display:inline;overflow:visible;enable-background:accumulate"
         id="path3141"
         sodipodi:cx="-816"
         sodipodi:cy="109"
         sodipodi:rx="112"
         sodipodi:ry="112"
         d="m -704,109 a 112,112 0 1 1 -224,0 112,112 0 1 1 224,0 z"
         transform="matrix(1.0012887,-0.67420999,0.3767416,0.55950984,1090.032,-604.87332)" />
      <path
         transform="matrix(0.76596068,-0.49206098,0.28819785,0.40834897,919.25432,-423.19361)"
         d="m -704,109 a 112,112 0 1 1 -224,0 112,112 0 1 1 224,0 z"
         sodipodi:ry="112"
         sodipodi:rx="112"
         sodipodi:cy="109"
         sodipodi:cx="-816"
         id="path3143"
         style="color:#000000;fill:#e6e6e6;fill-opacity:1;fill-rule:evenodd;stroke:#999999;stroke-width:36.50414658;stroke-linecap:butt;stroke-linejoin:miter;stroke-miterlimit:4;stroke-opacity:1;stroke-dasharray:none;stroke-dashoffset:0;marker:none;visibility:visible;display:inline;overflow:visible;enable-background:accumulate"
         sodipodi:type="arc" />
    </g>
    <g
       transform="matrix(0.49471889,0.06987677,-0.08042661,0.56941043,594.96523,415.85102)"
       id="g3151">
      <path
         transform="matrix(1.0012887,-0.67420999,0.3767416,0.55950984,1090.032,-604.87332)"
         d="m -704,109 a 112,112 0 1 1 -224,0 112,112 0 1 1 224,0 z"
         sodipodi:ry="112"
         sodipodi:rx="112"
         sodipodi:cy="109"
         sodipodi:cx="-816"
         id="path3153"
         style="color:#000000;fill:#b3b3b3;fill-opacity:1;fill-rule:evenodd;stroke:#999999;stroke-width:33.07987976;stroke-linecap:butt;stroke-linejoin:miter;stroke-miterlimit:4;stroke-opacity:1;stroke-dasharray:none;stroke-dashoffset:0;marker:none;visibility:visible;display:inline;overflow:visible;enable-background:accumulate"
         sodipodi:type="arc" />
      <path
         sodipodi:type="arc"
         style="color:#000000;fill:#e6e6e6;fill-opacity:1;fill-rule:evenodd;stroke:#999999;stroke-width:44.27193451;stroke-linecap:butt;stroke-linejoin:miter;stroke-miterlimit:4;stroke-opacity:1;stroke-dasharray:none;stroke-dashoffset:0;marker:none;visibility:visible;display:inline;overflow:visible;enable-background:accumulate"
         id="path3155"
         sodipodi:cx="-816"
         sodipodi:cy="109"
         sodipodi:rx="112"
         sodipodi:ry="112"
         d="m -704,109 a 112,112 0 1 1 -224,0 112,112 0 1 1 224,0 z"
         transform="matrix(0.76596068,-0.49206098,0.28819785,0.40834897,919.25432,-423.19361)" />
    </g>
    <g
       id="g3157"
       transform="matrix(-1.5277111,-0.36296725,0.40438246,-1.7020256,1149.1836,273.42444)">
      <path
         sodipodi:type="arc"
         style="color:#000000;fill:#b3b3b3;fill-opacity:1;fill-rule:evenodd;stroke:#999999;stroke-width:10.69836903;stroke-linecap:butt;stroke-linejoin:miter;stroke-miterlimit:4;stroke-opacity:1;stroke-dasharray:none;stroke-dashoffset:0;marker:none;visibility:visible;display:inline;overflow:visible;enable-background:accumulate"
         id="path3159"
         sodipodi:cx="-816"
         sodipodi:cy="109"
         sodipodi:rx="112"
         sodipodi:ry="112"
         d="m -704,109 a 112,112 0 1 1 -224,0 112,112 0 1 1 224,0 z"
         transform="matrix(1.0012887,-0.67420999,0.3767416,0.55950984,1090.032,-604.87332)" />
      <path
         transform="matrix(0.76596068,-0.49206098,0.28819785,0.40834897,919.25432,-423.19361)"
         d="m -704,109 a 112,112 0 1 1 -224,0 112,112 0 1 1 224,0 z"
         sodipodi:ry="112"
         sodipodi:rx="112"
         sodipodi:cy="109"
         sodipodi:cx="-816"
         id="path3161"
         style="color:#000000;fill:#e6e6e6;fill-opacity:1;fill-rule:evenodd;stroke:#999999;stroke-width:14.31799221;stroke-linecap:butt;stroke-linejoin:miter;stroke-miterlimit:4;stroke-opacity:1;stroke-dasharray:none;stroke-dashoffset:0;marker:none;visibility:visible;display:inline;overflow:visible;enable-background:accumulate"
         sodipodi:type="arc" />
    </g>
    <g
       transform="matrix(-0.45508512,0,0,-0.41423611,718.76192,-64.72449)"
       id="g3163">
      <path
         transform="matrix(1.0012887,-0.67420999,0.3767416,0.55950984,1090.032,-604.87332)"
         d="m -704,109 a 112,112 0 1 1 -224,0 112,112 0 1 1 224,0 z"
         sodipodi:ry="112"
         sodipodi:rx="112"
         sodipodi:cy="109"
         sodipodi:cx="-816"
         id="path3165"
         style="color:#000000;fill:#b3b3b3;fill-opacity:1;fill-rule:evenodd;stroke:#999999;stroke-width:40.8390007;stroke-linecap:butt;stroke-linejoin:miter;stroke-miterlimit:4;stroke-opacity:1;stroke-dasharray:none;stroke-dashoffset:0;marker:none;visibility:visible;display:inline;overflow:visible;enable-background:accumulate"
         sodipodi:type="arc" />
      <path
         sodipodi:type="arc"
         style="color:#000000;fill:#e6e6e6;fill-opacity:1;fill-rule:evenodd;stroke:#999999;stroke-width:54.65623093;stroke-linecap:butt;stroke-linejoin:miter;stroke-miterlimit:4;stroke-opacity:1;stroke-dasharray:none;stroke-dashoffset:0;marker:none;visibility:visible;display:inline;overflow:visible;enable-background:accumulate"
         id="path3167"
         sodipodi:cx="-816"
         sodipodi:cy="109"
         sodipodi:rx="112"
         sodipodi:ry="112"
         d="m -704,109 a 112,112 0 1 1 -224,0 112,112 0 1 1 224,0 z"
         transform="matrix(0.76596068,-0.49206098,0.28819785,0.40834897,919.25432,-423.19361)" />
    </g>
    <g
       id="g3169"
       transform="matrix(0.78061394,0,0,0.59764932,193.16898,450.87414)">
      <path
         sodipodi:type="arc"
         style="color:#000000;fill:#b3b3b3;fill-opacity:1;fill-rule:evenodd;stroke:#999999;stroke-width:25.95996094;stroke-linecap:butt;stroke-linejoin:miter;stroke-miterlimit:4;stroke-opacity:1;stroke-dasharray:none;stroke-dashoffset:0;marker:none;visibility:visible;display:inline;overflow:visible;enable-background:accumulate"
         id="path3171"
         sodipodi:cx="-816"
         sodipodi:cy="109"
         sodipodi:rx="112"
         sodipodi:ry="112"
         d="m -704,109 a 112,112 0 1 1 -224,0 112,112 0 1 1 224,0 z"
         transform="matrix(1.0012887,-0.67420999,0.3767416,0.55950984,1090.032,-604.87332)" />
      <path
         transform="matrix(0.76596068,-0.49206098,0.28819785,0.40834897,919.25432,-423.19361)"
         d="m -704,109 a 112,112 0 1 1 -224,0 112,112 0 1 1 224,0 z"
         sodipodi:ry="112"
         sodipodi:rx="112"
         sodipodi:cy="109"
         sodipodi:cx="-816"
         id="path3173"
         style="color:#000000;fill:#e6e6e6;fill-opacity:1;fill-rule:evenodd;stroke:#999999;stroke-width:34.74310303;stroke-linecap:butt;stroke-linejoin:miter;stroke-miterlimit:4;stroke-opacity:1;stroke-dasharray:none;stroke-dashoffset:0;marker:none;visibility:visible;display:inline;overflow:visible;enable-background:accumulate"
         sodipodi:type="arc" />
    </g>
    <g
       transform="matrix(0.45508512,0,0,0.41423611,336.82371,606.12096)"
       id="g3175">
      <path
         transform="matrix(1.0012887,-0.67420999,0.3767416,0.55950984,1090.032,-604.87332)"
         d="m -704,109 a 112,112 0 1 1 -224,0 112,112 0 1 1 224,0 z"
         sodipodi:ry="112"
         sodipodi:rx="112"
         sodipodi:cy="109"
         sodipodi:cx="-816"
         id="path3177"
         style="color:#000000;fill:#b3b3b3;fill-opacity:1;fill-rule:evenodd;stroke:#999999;stroke-width:40.8390007;stroke-linecap:butt;stroke-linejoin:miter;stroke-miterlimit:4;stroke-opacity:1;stroke-dasharray:none;stroke-dashoffset:0;marker:none;visibility:visible;display:inline;overflow:visible;enable-background:accumulate"
         sodipodi:type="arc" />
      <path
         sodipodi:type="arc"
         style="color:#000000;fill:#e6e6e6;fill-opacity:1;fill-rule:evenodd;stroke:#999999;stroke-width:54.65623093;stroke-linecap:butt;stroke-linejoin:miter;stroke-miterlimit:4;stroke-opacity:1;stroke-dasharray:none;stroke-dashoffset:0;marker:none;visibility:visible;display:inline;overflow:visible;enable-background:accumulate"
         id="path3179"
         sodipodi:cx="-816"
         sodipodi:cy="109"
         sodipodi:rx="112"
         sodipodi:ry="112"
         d="m -704,109 a 112,112 0 1 1 -224,0 112,112 0 1 1 224,0 z"
         transform="matrix(0.76596068,-0.49206098,0.28819785,0.40834897,919.25432,-423.19361)" />
    </g>
  </g>
  <g
     inkscape:groupmode="layer"
     id="layer11"
     inkscape:label="Star"
     style="display:none">
    <path
       sodipodi:type="arc"
       style="color:#000000;fill:#f9f9f9;fill-opacity:1;fill-rule:evenodd;stroke:#ffffff;stroke-width:8;stroke-linecap:butt;stroke-linejoin:miter;stroke-miterlimit:4;stroke-opacity:1;stroke-dasharray:none;stroke-dashoffset:0;marker:none;visibility:visible;display:inline;overflow:visible;filter:url(#filter3246);enable-background:accumulate"
       id="path3234"
       sodipodi:cx="-416"
       sodipodi:cy="189"
       sodipodi:rx="128"
       sodipodi:ry="128"
       d="m -288,189 a 128,128 0 1 1 -256,0 128,128 0 1 1 256,0 z"
       transform="translate(941.15208,66.278315)" />
  </g>
</svg>
